PR12sr519/PR12sr519/memory.vcd
$date
     Jan 01, 2013       19:27:39
$end

$version
              SystemC 2.3.0-ASI --- Dec  5 2012 19:01:31
$end

$timescale
     1 ps
$end

$scope module SystemC $end
$var wire    1  aaa  clock       $end
$var wire    9  aab  address [8:0]  $end
$var wire    1  aac  data_out       $end
$upscope $end
$enddefinitions  $end

$comment
All initial values are dumped below at time 0 sec = 0 timescale units.
$end

$dumpvars
1aaa
b0 aab
1aac
$end

#5000
0aaa

#10000
1aaa

#15000
0aaa

#20000
1aaa

#25000
0aaa

#30000
1aaa

#35000
0aaa

#40000
1aaa

#45000
0aaa

#50000
1aaa

#55000
0aaa

#60000
1aaa

#65000
0aaa

#70000
1aaa

#75000
0aaa

#80000
1aaa

#85000
0aaa

#90000
1aaa

#95000
0aaa

#100000
1aaa

#105000
0aaa

#110000
1aaa

#115000
0aaa

#120000
1aaa

#125000
0aaa

#130000
1aaa

#135000
0aaa

#140000
1aaa

#145000
0aaa

#150000
1aaa

#155000
0aaa

#160000
1aaa

#165000
0aaa

#170000
1aaa

#175000
0aaa

#180000
1aaa

#185000
0aaa

#190000
1aaa

#195000
0aaa

#200000
1aaa
b1 aab

#205000
0aaa

#210000
1aaa

#215000
0aaa

#220000
1aaa

#225000
0aaa

#230000
1aaa

#235000
0aaa

#240000
1aaa

#245000
0aaa

#250000
1aaa

#255000
0aaa

#260000
1aaa

#265000
0aaa

#270000
1aaa

#275000
0aaa

#280000
1aaa

#285000
0aaa

#290000
1aaa

#295000
0aaa

#300000
1aaa
b10 aab

#305000
0aaa

#310000
1aaa

#315000
0aaa

#320000
1aaa

#325000
0aaa

#330000
1aaa

#335000
0aaa

#340000
1aaa

#345000
0aaa

#350000
1aaa

#355000
0aaa

#360000
1aaa

#365000
0aaa

#370000
1aaa

#375000
0aaa

#380000
1aaa

#385000
0aaa

#390000
1aaa

#395000
0aaa

#400000
1aaa
b11 aab

#405000
0aaa

#410000
1aaa

#415000
0aaa

#420000
1aaa

#425000
0aaa

#430000
1aaa

#435000
0aaa

#440000
1aaa

#445000
0aaa

#450000
1aaa

#455000
0aaa

#460000
1aaa

#465000
0aaa

#470000
1aaa

#475000
0aaa

#480000
1aaa

#485000
0aaa

#490000
1aaa

#495000
0aaa

#500000
1aaa
b100 aab

#505000
0aaa

#510000
1aaa

#515000
0aaa

#520000
1aaa

#525000
0aaa

#530000
1aaa

#535000
0aaa

#540000
1aaa

#545000
0aaa

#550000
1aaa

#555000
0aaa

#560000
1aaa

#565000
0aaa

#570000
1aaa

#575000
0aaa

#580000
1aaa

#585000
0aaa

#590000
1aaa

#595000
0aaa

#600000
1aaa
b101 aab

#605000
0aaa

#610000
1aaa

#615000
0aaa

#620000
1aaa

#625000
0aaa

#630000
1aaa

#635000
0aaa

#640000
1aaa

#645000
0aaa

#650000
1aaa

#655000
0aaa

#660000
1aaa

#665000
0aaa

#670000
1aaa

#675000
0aaa

#680000
1aaa

#685000
0aaa

#690000
1aaa

#695000
0aaa

#700000
1aaa
b110 aab

#705000
0aaa

#710000
1aaa

#715000
0aaa

#720000
1aaa

#725000
0aaa

#730000
1aaa

#735000
0aaa

#740000
1aaa

#745000
0aaa

#750000
1aaa

#755000
0aaa

#760000
1aaa

#765000
0aaa

#770000
1aaa

#775000
0aaa

#780000
1aaa

#785000
0aaa

#790000
1aaa

#795000
0aaa

#800000
1aaa
b111 aab

#805000
0aaa

#810000
1aaa

#815000
0aaa

#820000
1aaa

#825000
0aaa

#830000
1aaa

#835000
0aaa

#840000
1aaa

#845000
0aaa

#850000
1aaa

#855000
0aaa

#860000
1aaa

#865000
0aaa

#870000
1aaa

#875000
0aaa

#880000
1aaa

#885000
0aaa

#890000
1aaa

#895000
0aaa

#900000
1aaa
b1000 aab

#905000
0aaa

#910000
1aaa

#915000
0aaa

#920000
1aaa

#925000
0aaa

#930000
1aaa

#935000
0aaa

#940000
1aaa

#945000
0aaa

#950000
1aaa

#955000
0aaa

#960000
1aaa

#965000
0aaa

#970000
1aaa

#975000
0aaa

#980000
1aaa

#985000
0aaa

#990000
1aaa

#995000
0aaa

#1000000
1aaa
b1001 aab

#1005000
0aaa

#1010000
1aaa

#1015000
0aaa

#1020000
1aaa

#1025000
0aaa

#1030000
1aaa

#1035000
0aaa

#1040000
1aaa

#1045000
0aaa

#1050000
1aaa

#1055000
0aaa

#1060000
1aaa

#1065000
0aaa

#1070000
1aaa

#1075000
0aaa

#1080000
1aaa

#1085000
0aaa

#1090000
1aaa

#1095000
0aaa

#1100000
1aaa
b1010 aab

#1105000
0aaa

#1110000
1aaa

#1115000
0aaa

#1120000
1aaa

#1125000
0aaa

#1130000
1aaa

#1135000
0aaa

#1140000
1aaa

#1145000
0aaa

#1150000
1aaa

#1155000
0aaa

#1160000
1aaa

#1165000
0aaa

#1170000
1aaa

#1175000
0aaa

#1180000
1aaa

#1185000
0aaa

#1190000
1aaa

#1195000
0aaa

#1200000
1aaa
b1011 aab

#1205000
0aaa

#1210000
1aaa

#1215000
0aaa

#1220000
1aaa

#1225000
0aaa

#1230000
1aaa

#1235000
0aaa

#1240000
1aaa

#1245000
0aaa

#1250000
1aaa

#1255000
0aaa

#1260000
1aaa

#1265000
0aaa

#1270000
1aaa

#1275000
0aaa

#1280000
1aaa

#1285000
0aaa

#1290000
1aaa

#1295000
0aaa

#1300000
1aaa
b1100 aab

#1305000
0aaa

#1310000
1aaa

#1315000
0aaa

#1320000
1aaa

#1325000
0aaa

#1330000
1aaa

#1335000
0aaa

#1340000
1aaa

#1345000
0aaa

#1350000
1aaa

#1355000
0aaa

#1360000
1aaa

#1365000
0aaa

#1370000
1aaa

#1375000
0aaa

#1380000
1aaa

#1385000
0aaa

#1390000
1aaa

#1395000
0aaa

#1400000
1aaa
b1101 aab

#1405000
0aaa

#1410000
1aaa

#1415000
0aaa

#1420000
1aaa

#1425000
0aaa

#1430000
1aaa

#1435000
0aaa

#1440000
1aaa

#1445000
0aaa

#1450000
1aaa

#1455000
0aaa

#1460000
1aaa

#1465000
0aaa

#1470000
1aaa

#1475000
0aaa

#1480000
1aaa

#1485000
0aaa

#1490000
1aaa

#1495000
0aaa

#1500000
1aaa
b1110 aab

#1505000
0aaa

#1510000
1aaa

#1515000
0aaa

#1520000
1aaa

#1525000
0aaa

#1530000
1aaa

#1535000
0aaa

#1540000
1aaa

#1545000
0aaa

#1550000
1aaa

#1555000
0aaa

#1560000
1aaa

#1565000
0aaa

#1570000
1aaa

#1575000
0aaa

#1580000
1aaa

#1585000
0aaa

#1590000
1aaa

#1595000
0aaa

#1600000
1aaa
b1111 aab

#1605000
0aaa

#1610000
1aaa

#1615000
0aaa

#1620000
1aaa

#1625000
0aaa

#1630000
1aaa

#1635000
0aaa

#1640000
1aaa

#1645000
0aaa

#1650000
1aaa

#1655000
0aaa

#1660000
1aaa

#1665000
0aaa

#1670000
1aaa

#1675000
0aaa

#1680000
1aaa

#1685000
0aaa

#1690000
1aaa

#1695000
0aaa

#1700000
1aaa
b10000 aab

#1705000
0aaa

#1710000
1aaa

#1715000
0aaa

#1720000
1aaa

#1725000
0aaa

#1730000
1aaa

#1735000
0aaa

#1740000
1aaa

#1745000
0aaa

#1750000
1aaa

#1755000
0aaa

#1760000
1aaa

#1765000
0aaa

#1770000
1aaa

#1775000
0aaa

#1780000
1aaa

#1785000
0aaa

#1790000
1aaa

#1795000
0aaa

#1800000
1aaa
b10001 aab

#1805000
0aaa

#1810000
1aaa

#1815000
0aaa

#1820000
1aaa

#1825000
0aaa

#1830000
1aaa

#1835000
0aaa

#1840000
1aaa

#1845000
0aaa

#1850000
1aaa

#1855000
0aaa

#1860000
1aaa

#1865000
0aaa

#1870000
1aaa

#1875000
0aaa

#1880000
1aaa

#1885000
0aaa

#1890000
1aaa

#1895000
0aaa

#1900000
1aaa
b10010 aab

#1905000
0aaa

#1910000
1aaa

#1915000
0aaa

#1920000
1aaa

#1925000
0aaa

#1930000
1aaa

#1935000
0aaa

#1940000
1aaa

#1945000
0aaa

#1950000
1aaa

#1955000
0aaa

#1960000
1aaa

#1965000
0aaa

#1970000
1aaa

#1975000
0aaa

#1980000
1aaa

#1985000
0aaa

#1990000
1aaa

#1995000
0aaa

#2000000
1aaa
b10011 aab

#2005000
0aaa

#2010000
1aaa

#2015000
0aaa

#2020000
1aaa

#2025000
0aaa

#2030000
1aaa

#2035000
0aaa

#2040000
1aaa

#2045000
0aaa

#2050000
1aaa

#2055000
0aaa

#2060000
1aaa

#2065000
0aaa

#2070000
1aaa

#2075000
0aaa

#2080000
1aaa

#2085000
0aaa

#2090000
1aaa

#2095000
0aaa

#2100000
1aaa
b10100 aab

#2105000
0aaa

#2110000
1aaa

#2115000
0aaa

#2120000
1aaa

#2125000
0aaa

#2130000
1aaa

#2135000
0aaa

#2140000
1aaa

#2145000
0aaa

#2150000
1aaa

#2155000
0aaa

#2160000
1aaa

#2165000
0aaa

#2170000
1aaa

#2175000
0aaa

#2180000
1aaa

#2185000
0aaa

#2190000
1aaa

#2195000
0aaa

#2200000
1aaa
b10101 aab

#2205000
0aaa

#2210000
1aaa

#2215000
0aaa

#2220000
1aaa

#2225000
0aaa

#2230000
1aaa

#2235000
0aaa

#2240000
1aaa

#2245000
0aaa

#2250000
1aaa

#2255000
0aaa

#2260000
1aaa

#2265000
0aaa

#2270000
1aaa

#2275000
0aaa

#2280000
1aaa

#2285000
0aaa

#2290000
1aaa

#2295000
0aaa

#2300000
1aaa
b10110 aab

#2305000
0aaa

#2310000
1aaa

#2315000
0aaa

#2320000
1aaa

#2325000
0aaa

#2330000
1aaa

#2335000
0aaa

#2340000
1aaa

#2345000
0aaa

#2350000
1aaa

#2355000
0aaa

#2360000
1aaa

#2365000
0aaa

#2370000
1aaa

#2375000
0aaa

#2380000
1aaa

#2385000
0aaa

#2390000
1aaa

#2395000
0aaa

#2400000
1aaa
b10111 aab

#2405000
0aaa

#2410000
1aaa

#2415000
0aaa

#2420000
1aaa

#2425000
0aaa

#2430000
1aaa

#2435000
0aaa

#2440000
1aaa

#2445000
0aaa

#2450000
1aaa

#2455000
0aaa

#2460000
1aaa

#2465000
0aaa

#2470000
1aaa

#2475000
0aaa

#2480000
1aaa

#2485000
0aaa

#2490000
1aaa

#2495000
0aaa

#2500000
1aaa
b11000 aab

#2505000
0aaa

#2510000
1aaa

#2515000
0aaa

#2520000
1aaa

#2525000
0aaa

#2530000
1aaa

#2535000
0aaa

#2540000
1aaa

#2545000
0aaa

#2550000
1aaa

#2555000
0aaa

#2560000
1aaa

#2565000
0aaa

#2570000
1aaa

#2575000
0aaa

#2580000
1aaa

#2585000
0aaa

#2590000
1aaa

#2595000
0aaa

#2600000
1aaa
b11001 aab

#2605000
0aaa

#2610000
1aaa

#2615000
0aaa

#2620000
1aaa

#2625000
0aaa

#2630000
1aaa

#2635000
0aaa

#2640000
1aaa

#2645000
0aaa

#2650000
1aaa

#2655000
0aaa

#2660000
1aaa

#2665000
0aaa

#2670000
1aaa

#2675000
0aaa

#2680000
1aaa

#2685000
0aaa

#2690000
1aaa

#2695000
0aaa

#2700000
1aaa
b11010 aab

#2705000
0aaa

#2710000
1aaa

#2715000
0aaa

#2720000
1aaa

#2725000
0aaa

#2730000
1aaa

#2735000
0aaa

#2740000
1aaa

#2745000
0aaa

#2750000
1aaa

#2755000
0aaa

#2760000
1aaa

#2765000
0aaa

#2770000
1aaa

#2775000
0aaa

#2780000
1aaa

#2785000
0aaa

#2790000
1aaa

#2795000
0aaa

#2800000
1aaa
b11011 aab

#2805000
0aaa

#2810000
1aaa

#2815000
0aaa

#2820000
1aaa

#2825000
0aaa

#2830000
1aaa

#2835000
0aaa

#2840000
1aaa

#2845000
0aaa

#2850000
1aaa

#2855000
0aaa

#2860000
1aaa

#2865000
0aaa

#2870000
1aaa

#2875000
0aaa

#2880000
1aaa

#2885000
0aaa

#2890000
1aaa

#2895000
0aaa

#2900000
1aaa
b11100 aab

#2905000
0aaa

#2910000
1aaa

#2915000
0aaa

#2920000
1aaa

#2925000
0aaa

#2930000
1aaa

#2935000
0aaa

#2940000
1aaa

#2945000
0aaa

#2950000
1aaa

#2955000
0aaa

#2960000
1aaa

#2965000
0aaa

#2970000
1aaa

#2975000
0aaa

#2980000
1aaa

#2985000
0aaa

#2990000
1aaa

#2995000
0aaa

#3000000
1aaa
b11101 aab

#3005000
0aaa

#3010000
1aaa

#3015000
0aaa

#3020000
1aaa

#3025000
0aaa

#3030000
1aaa

#3035000
0aaa

#3040000
1aaa

#3045000
0aaa

#3050000
1aaa

#3055000
0aaa

#3060000
1aaa

#3065000
0aaa

#3070000
1aaa

#3075000
0aaa

#3080000
1aaa

#3085000
0aaa

#3090000
1aaa

#3095000
0aaa

#3100000
1aaa
b11110 aab

#3105000
0aaa

#3110000
1aaa

#3115000
0aaa

#3120000
1aaa

#3125000
0aaa

#3130000
1aaa

#3135000
0aaa

#3140000
1aaa

#3145000
0aaa

#3150000
1aaa

#3155000
0aaa

#3160000
1aaa

#3165000
0aaa

#3170000
1aaa

#3175000
0aaa

#3180000
1aaa

#3185000
0aaa

#3190000
1aaa

#3195000
0aaa

#3200000
1aaa
b11111 aab

#3205000
0aaa

#3210000
1aaa

#3215000
0aaa

#3220000
1aaa

#3225000
0aaa

#3230000
1aaa

#3235000
0aaa

#3240000
1aaa

#3245000
0aaa

#3250000
1aaa

#3255000
0aaa

#3260000
1aaa

#3265000
0aaa

#3270000
1aaa

#3275000
0aaa

#3280000
1aaa

#3285000
0aaa

#3290000
1aaa

#3295000
0aaa

#3300000
1aaa
b100000 aab

#3305000
0aaa

#3310000
1aaa

#3315000
0aaa

#3320000
1aaa

#3325000
0aaa

#3330000
1aaa

#3335000
0aaa

#3340000
1aaa

#3345000
0aaa

#3350000
1aaa

#3355000
0aaa

#3360000
1aaa

#3365000
0aaa

#3370000
1aaa

#3375000
0aaa

#3380000
1aaa

#3385000
0aaa

#3390000
1aaa

#3395000
0aaa

#3400000
1aaa
b100001 aab

#3405000
0aaa

#3410000
1aaa

#3415000
0aaa

#3420000
1aaa

#3425000
0aaa

#3430000
1aaa

#3435000
0aaa

#3440000
1aaa

#3445000
0aaa

#3450000
1aaa

#3455000
0aaa

#3460000
1aaa

#3465000
0aaa

#3470000
1aaa

#3475000
0aaa

#3480000
1aaa

#3485000
0aaa

#3490000
1aaa

#3495000
0aaa

#3500000
1aaa
b100010 aab

#3505000
0aaa

#3510000
1aaa

#3515000
0aaa

#3520000
1aaa

#3525000
0aaa

#3530000
1aaa

#3535000
0aaa

#3540000
1aaa

#3545000
0aaa

#3550000
1aaa

#3555000
0aaa

#3560000
1aaa

#3565000
0aaa

#3570000
1aaa

#3575000
0aaa

#3580000
1aaa

#3585000
0aaa

#3590000
1aaa

#3595000
0aaa

#3600000
1aaa
b100011 aab

#3605000
0aaa

#3610000
1aaa

#3615000
0aaa

#3620000
1aaa

#3625000
0aaa

#3630000
1aaa

#3635000
0aaa

#3640000
1aaa

#3645000
0aaa

#3650000
1aaa

#3655000
0aaa

#3660000
1aaa

#3665000
0aaa

#3670000
1aaa

#3675000
0aaa

#3680000
1aaa

#3685000
0aaa

#3690000
1aaa

#3695000
0aaa

#3700000
1aaa
b100100 aab

#3705000
0aaa

#3710000
1aaa

#3715000
0aaa

#3720000
1aaa

#3725000
0aaa

#3730000
1aaa

#3735000
0aaa

#3740000
1aaa

#3745000
0aaa

#3750000
1aaa

#3755000
0aaa

#3760000
1aaa

#3765000
0aaa

#3770000
1aaa

#3775000
0aaa

#3780000
1aaa

#3785000
0aaa

#3790000
1aaa

#3795000
0aaa

#3800000
1aaa
b100101 aab

#3805000
0aaa

#3810000
1aaa

#3815000
0aaa

#3820000
1aaa

#3825000
0aaa

#3830000
1aaa

#3835000
0aaa

#3840000
1aaa

#3845000
0aaa

#3850000
1aaa

#3855000
0aaa

#3860000
1aaa

#3865000
0aaa

#3870000
1aaa

#3875000
0aaa

#3880000
1aaa

#3885000
0aaa

#3890000
1aaa

#3895000
0aaa

#3900000
1aaa
b100110 aab

#3905000
0aaa

#3910000
1aaa

#3915000
0aaa

#3920000
1aaa

#3925000
0aaa

#3930000
1aaa

#3935000
0aaa

#3940000
1aaa

#3945000
0aaa

#3950000
1aaa

#3955000
0aaa

#3960000
1aaa

#3965000
0aaa

#3970000
1aaa

#3975000
0aaa

#3980000
1aaa

#3985000
0aaa

#3990000
1aaa

#3995000
0aaa

#4000000
1aaa
b100111 aab

#4005000
0aaa

#4010000
1aaa

#4015000
0aaa

#4020000
1aaa

#4025000
0aaa

#4030000
1aaa

#4035000
0aaa

#4040000
1aaa

#4045000
0aaa

#4050000
1aaa

#4055000
0aaa

#4060000
1aaa

#4065000
0aaa

#4070000
1aaa

#4075000
0aaa

#4080000
1aaa

#4085000
0aaa

#4090000
1aaa

#4095000
0aaa

#4100000
1aaa
b101000 aab

#4105000
0aaa

#4110000
1aaa

#4115000
0aaa

#4120000
1aaa

#4125000
0aaa

#4130000
1aaa

#4135000
0aaa

#4140000
1aaa

#4145000
0aaa

#4150000
1aaa

#4155000
0aaa

#4160000
1aaa

#4165000
0aaa

#4170000
1aaa

#4175000
0aaa

#4180000
1aaa

#4185000
0aaa

#4190000
1aaa

#4195000
0aaa

#4200000
1aaa
b101001 aab

#4205000
0aaa

#4210000
1aaa

#4215000
0aaa

#4220000
1aaa

#4225000
0aaa

#4230000
1aaa

#4235000
0aaa

#4240000
1aaa

#4245000
0aaa

#4250000
1aaa

#4255000
0aaa

#4260000
1aaa

#4265000
0aaa

#4270000
1aaa

#4275000
0aaa

#4280000
1aaa

#4285000
0aaa

#4290000
1aaa

#4295000
0aaa

#4300000
1aaa
b101010 aab

#4305000
0aaa

#4310000
1aaa

#4315000
0aaa

#4320000
1aaa

#4325000
0aaa

#4330000
1aaa

#4335000
0aaa

#4340000
1aaa

#4345000
0aaa

#4350000
1aaa

#4355000
0aaa

#4360000
1aaa

#4365000
0aaa

#4370000
1aaa

#4375000
0aaa

#4380000
1aaa

#4385000
0aaa

#4390000
1aaa

#4395000
0aaa

#4400000
1aaa
b101011 aab

#4405000
0aaa

#4410000
1aaa

#4415000
0aaa

#4420000
1aaa

#4425000
0aaa

#4430000
1aaa

#4435000
0aaa

#4440000
1aaa

#4445000
0aaa

#4450000
1aaa

#4455000
0aaa

#4460000
1aaa

#4465000
0aaa

#4470000
1aaa

#4475000
0aaa

#4480000
1aaa

#4485000
0aaa

#4490000
1aaa

#4495000
0aaa

#4500000
1aaa
b101100 aab

#4505000
0aaa

#4510000
1aaa

#4515000
0aaa

#4520000
1aaa

#4525000
0aaa

#4530000
1aaa

#4535000
0aaa

#4540000
1aaa

#4545000
0aaa

#4550000
1aaa

#4555000
0aaa

#4560000
1aaa

#4565000
0aaa

#4570000
1aaa

#4575000
0aaa

#4580000
1aaa

#4585000
0aaa

#4590000
1aaa

#4595000
0aaa

#4600000
1aaa
b101101 aab

#4605000
0aaa

#4610000
1aaa

#4615000
0aaa

#4620000
1aaa

#4625000
0aaa

#4630000
1aaa

#4635000
0aaa

#4640000
1aaa

#4645000
0aaa

#4650000
1aaa

#4655000
0aaa

#4660000
1aaa

#4665000
0aaa

#4670000
1aaa

#4675000
0aaa

#4680000
1aaa

#4685000
0aaa

#4690000
1aaa

#4695000
0aaa

#4700000
1aaa
b101110 aab

#4705000
0aaa

#4710000
1aaa

#4715000
0aaa

#4720000
1aaa

#4725000
0aaa

#4730000
1aaa

#4735000
0aaa

#4740000
1aaa

#4745000
0aaa

#4750000
1aaa

#4755000
0aaa

#4760000
1aaa

#4765000
0aaa

#4770000
1aaa

#4775000
0aaa

#4780000
1aaa

#4785000
0aaa

#4790000
1aaa

#4795000
0aaa

#4800000
1aaa
b101111 aab

#4805000
0aaa

#4810000
1aaa

#4815000
0aaa

#4820000
1aaa

#4825000
0aaa

#4830000
1aaa

#4835000
0aaa

#4840000
1aaa

#4845000
0aaa

#4850000
1aaa

#4855000
0aaa

#4860000
1aaa

#4865000
0aaa

#4870000
1aaa

#4875000
0aaa

#4880000
1aaa

#4885000
0aaa

#4890000
1aaa

#4895000
0aaa

#4900000
1aaa
b110000 aab

#4905000
0aaa

#4910000
1aaa

#4915000
0aaa

#4920000
1aaa

#4925000
0aaa

#4930000
1aaa

#4935000
0aaa

#4940000
1aaa

#4945000
0aaa

#4950000
1aaa

#4955000
0aaa

#4960000
1aaa

#4965000
0aaa

#4970000
1aaa

#4975000
0aaa

#4980000
1aaa

#4985000
0aaa

#4990000
1aaa

#4995000
0aaa

#5000000
1aaa
b110001 aab

#5005000
0aaa

#5010000
1aaa

#5015000
0aaa

#5020000
1aaa

#5025000
0aaa

#5030000
1aaa

#5035000
0aaa

#5040000
1aaa

#5045000
0aaa

#5050000
1aaa

#5055000
0aaa

#5060000
1aaa

#5065000
0aaa

#5070000
1aaa

#5075000
0aaa

#5080000
1aaa

#5085000
0aaa

#5090000
1aaa

#5095000
0aaa

#5100000
1aaa
b110010 aab

#5105000
0aaa

#5110000
1aaa

#5115000
0aaa

#5120000
1aaa

#5125000
0aaa

#5130000
1aaa

#5135000
0aaa

#5140000
1aaa

#5145000
0aaa

#5150000
1aaa

#5155000
0aaa

#5160000
1aaa

#5165000
0aaa

#5170000
1aaa

#5175000
0aaa

#5180000
1aaa

#5185000
0aaa

#5190000
1aaa

#5195000
0aaa

#5200000
1aaa
b110011 aab

#5205000
0aaa

#5210000
1aaa

#5215000
0aaa

#5220000
1aaa

#5225000
0aaa

#5230000
1aaa

#5235000
0aaa

#5240000
1aaa

#5245000
0aaa

#5250000
1aaa

#5255000
0aaa

#5260000
1aaa

#5265000
0aaa

#5270000
1aaa

#5275000
0aaa

#5280000
1aaa

#5285000
0aaa

#5290000
1aaa

#5295000
0aaa

#5300000
1aaa
b110100 aab

#5305000
0aaa

#5310000
1aaa

#5315000
0aaa

#5320000
1aaa

#5325000
0aaa

#5330000
1aaa

#5335000
0aaa

#5340000
1aaa

#5345000
0aaa

#5350000
1aaa

#5355000
0aaa

#5360000
1aaa

#5365000
0aaa

#5370000
1aaa

#5375000
0aaa

#5380000
1aaa

#5385000
0aaa

#5390000
1aaa

#5395000
0aaa

#5400000
1aaa
b110101 aab

#5405000
0aaa

#5410000
1aaa

#5415000
0aaa

#5420000
1aaa

#5425000
0aaa

#5430000
1aaa

#5435000
0aaa

#5440000
1aaa

#5445000
0aaa

#5450000
1aaa

#5455000
0aaa

#5460000
1aaa

#5465000
0aaa

#5470000
1aaa

#5475000
0aaa

#5480000
1aaa

#5485000
0aaa

#5490000
1aaa

#5495000
0aaa

#5500000
1aaa
b110110 aab

#5505000
0aaa

#5510000
1aaa

#5515000
0aaa

#5520000
1aaa

#5525000
0aaa

#5530000
1aaa

#5535000
0aaa

#5540000
1aaa

#5545000
0aaa

#5550000
1aaa

#5555000
0aaa

#5560000
1aaa

#5565000
0aaa

#5570000
1aaa

#5575000
0aaa

#5580000
1aaa

#5585000
0aaa

#5590000
1aaa

#5595000
0aaa

#5600000
1aaa
b110111 aab

#5605000
0aaa

#5610000
1aaa

#5615000
0aaa

#5620000
1aaa

#5625000
0aaa

#5630000
1aaa

#5635000
0aaa

#5640000
1aaa

#5645000
0aaa

#5650000
1aaa

#5655000
0aaa

#5660000
1aaa

#5665000
0aaa

#5670000
1aaa

#5675000
0aaa

#5680000
1aaa

#5685000
0aaa

#5690000
1aaa

#5695000
0aaa

#5700000
1aaa
b111000 aab

#5705000
0aaa

#5710000
1aaa

#5715000
0aaa

#5720000
1aaa

#5725000
0aaa

#5730000
1aaa

#5735000
0aaa

#5740000
1aaa

#5745000
0aaa

#5750000
1aaa

#5755000
0aaa

#5760000
1aaa

#5765000
0aaa

#5770000
1aaa

#5775000
0aaa

#5780000
1aaa

#5785000
0aaa

#5790000
1aaa

#5795000
0aaa

#5800000
1aaa
b111001 aab

#5805000
0aaa

#5810000
1aaa

#5815000
0aaa

#5820000
1aaa

#5825000
0aaa

#5830000
1aaa

#5835000
0aaa

#5840000
1aaa

#5845000
0aaa

#5850000
1aaa

#5855000
0aaa

#5860000
1aaa

#5865000
0aaa

#5870000
1aaa

#5875000
0aaa

#5880000
1aaa

#5885000
0aaa

#5890000
1aaa

#5895000
0aaa

#5900000
1aaa
b111010 aab

#5905000
0aaa

#5910000
1aaa

#5915000
0aaa

#5920000
1aaa

#5925000
0aaa

#5930000
1aaa

#5935000
0aaa

#5940000
1aaa

#5945000
0aaa

#5950000
1aaa

#5955000
0aaa

#5960000
1aaa

#5965000
0aaa

#5970000
1aaa

#5975000
0aaa

#5980000
1aaa

#5985000
0aaa

#5990000
1aaa

#5995000
0aaa

#6000000
1aaa
b111011 aab

#6005000
0aaa

#6010000
1aaa

#6015000
0aaa

#6020000
1aaa

#6025000
0aaa

#6030000
1aaa

#6035000
0aaa

#6040000
1aaa

#6045000
0aaa

#6050000
1aaa

#6055000
0aaa

#6060000
1aaa

#6065000
0aaa

#6070000
1aaa

#6075000
0aaa

#6080000
1aaa

#6085000
0aaa

#6090000
1aaa

#6095000
0aaa

#6100000
1aaa
b111100 aab

#6105000
0aaa

#6110000
1aaa

#6115000
0aaa

#6120000
1aaa

#6125000
0aaa

#6130000
1aaa

#6135000
0aaa

#6140000
1aaa

#6145000
0aaa

#6150000
1aaa

#6155000
0aaa

#6160000
1aaa

#6165000
0aaa

#6170000
1aaa

#6175000
0aaa

#6180000
1aaa

#6185000
0aaa

#6190000
1aaa

#6195000
0aaa

#6200000
1aaa
b111101 aab

#6205000
0aaa

#6210000
1aaa

#6215000
0aaa

#6220000
1aaa

#6225000
0aaa

#6230000
1aaa

#6235000
0aaa

#6240000
1aaa

#6245000
0aaa

#6250000
1aaa

#6255000
0aaa

#6260000
1aaa

#6265000
0aaa

#6270000
1aaa

#6275000
0aaa

#6280000
1aaa

#6285000
0aaa

#6290000
1aaa

#6295000
0aaa

#6300000
1aaa
b111110 aab

#6305000
0aaa

#6310000
1aaa

#6315000
0aaa

#6320000
1aaa

#6325000
0aaa

#6330000
1aaa

#6335000
0aaa

#6340000
1aaa

#6345000
0aaa

#6350000
1aaa

#6355000
0aaa

#6360000
1aaa

#6365000
0aaa

#6370000
1aaa

#6375000
0aaa

#6380000
1aaa

#6385000
0aaa

#6390000
1aaa

#6395000
0aaa

#6400000
1aaa
b111111 aab
0aac

#6405000
0aaa

#6410000
1aaa

#6415000
0aaa

#6420000
1aaa

#6425000
0aaa

#6430000
1aaa

#6435000
0aaa

#6440000
1aaa

#6445000
0aaa

#6450000
1aaa

#6455000
0aaa

#6460000
1aaa

#6465000
0aaa

#6470000
1aaa

#6475000
0aaa

#6480000
1aaa

#6485000
0aaa

#6490000
1aaa

#6495000
0aaa

#6500000
1aaa
b1000000 aab
1aac

#6505000
0aaa

#6510000
1aaa

#6515000
0aaa

#6520000
1aaa

#6525000
0aaa

#6530000
1aaa

#6535000
0aaa

#6540000
1aaa

#6545000
0aaa

#6550000
1aaa

#6555000
0aaa

#6560000
1aaa

#6565000
0aaa

#6570000
1aaa

#6575000
0aaa

#6580000
1aaa

#6585000
0aaa

#6590000
1aaa

#6595000
0aaa

#6600000
1aaa
b1000001 aab

#6605000
0aaa

#6610000
1aaa

#6615000
0aaa

#6620000
1aaa

#6625000
0aaa

#6630000
1aaa

#6635000
0aaa

#6640000
1aaa

#6645000
0aaa

#6650000
1aaa

#6655000
0aaa

#6660000
1aaa

#6665000
0aaa

#6670000
1aaa

#6675000
0aaa

#6680000
1aaa

#6685000
0aaa

#6690000
1aaa

#6695000
0aaa

#6700000
1aaa
b1000010 aab

#6705000
0aaa

#6710000
1aaa

#6715000
0aaa

#6720000
1aaa

#6725000
0aaa

#6730000
1aaa

#6735000
0aaa

#6740000
1aaa

#6745000
0aaa

#6750000
1aaa

#6755000
0aaa

#6760000
1aaa

#6765000
0aaa

#6770000
1aaa

#6775000
0aaa

#6780000
1aaa

#6785000
0aaa

#6790000
1aaa

#6795000
0aaa

#6800000
1aaa
b1000011 aab

#6805000
0aaa

#6810000
1aaa

#6815000
0aaa

#6820000
1aaa

#6825000
0aaa

#6830000
1aaa

#6835000
0aaa

#6840000
1aaa

#6845000
0aaa

#6850000
1aaa

#6855000
0aaa

#6860000
1aaa

#6865000
0aaa

#6870000
1aaa

#6875000
0aaa

#6880000
1aaa

#6885000
0aaa

#6890000
1aaa

#6895000
0aaa

#6900000
1aaa
b1000100 aab

#6905000
0aaa

#6910000
1aaa

#6915000
0aaa

#6920000
1aaa

#6925000
0aaa

#6930000
1aaa

#6935000
0aaa

#6940000
1aaa

#6945000
0aaa

#6950000
1aaa

#6955000
0aaa

#6960000
1aaa

#6965000
0aaa

#6970000
1aaa

#6975000
0aaa

#6980000
1aaa

#6985000
0aaa

#6990000
1aaa

#6995000
0aaa

#7000000
1aaa
b1000101 aab

#7005000
0aaa

#7010000
1aaa

#7015000
0aaa

#7020000
1aaa

#7025000
0aaa

#7030000
1aaa

#7035000
0aaa

#7040000
1aaa

#7045000
0aaa

#7050000
1aaa

#7055000
0aaa

#7060000
1aaa

#7065000
0aaa

#7070000
1aaa

#7075000
0aaa

#7080000
1aaa

#7085000
0aaa

#7090000
1aaa

#7095000
0aaa

#7100000
1aaa
b1000110 aab

#7105000
0aaa

#7110000
1aaa

#7115000
0aaa

#7120000
1aaa

#7125000
0aaa

#7130000
1aaa

#7135000
0aaa

#7140000
1aaa

#7145000
0aaa

#7150000
1aaa

#7155000
0aaa

#7160000
1aaa

#7165000
0aaa

#7170000
1aaa

#7175000
0aaa

#7180000
1aaa

#7185000
0aaa

#7190000
1aaa

#7195000
0aaa

#7200000
1aaa
b1000111 aab

#7205000
0aaa

#7210000
1aaa

#7215000
0aaa

#7220000
1aaa

#7225000
0aaa

